Analysis of ToxCast phase I Chemical Screening Results from NIS RAIU Bioassay in R
…
            Analysis of ToxCast phase I Chemical Screening Results from NIS RAIU Bioassay in R

3 Code Test

To ensure all the funcitons written for the analysis works fine, a small data set (included in the ‘toxplot’ package) was used for testing purposes.This testing was done before analyzing the full dataset.

Below are the results by analyzing this small demo dataset.

library(tidyverse)
library(devtools)
load_all("./toxplot")
demo_mc

## # A tibble: 540 x 11
##      assay      pid  spid  rowi  coli  conc    wllt  wllq   rep  rval
##      <chr>    <chr> <chr> <int> <int> <dbl>   <chr> <int> <chr> <dbl>
##  1 Cytotox Plate_11  DMSO     1     1    NA       n     1  rep1 51931
##  2 Cytotox Plate_11  DMSO     2    12    NA       n     1  rep1 48694
##  3 Cytotox Plate_11  DMSO     3    12    NA       n     1  rep1 47870
##  4 Cytotox Plate_11  DMSO     4    12    NA       n     1  rep1 47624
##  5 Cytotox Plate_11  DMSO     5    12    NA       n     1  rep1 47383
##  6 Cytotox Plate_11  DMSO     6    12    NA       n     1  rep1 46533
##  7 Cytotox Plate_11  DMSO     7    12    NA       n     1  rep1 45629
##  8 Cytotox Plate_11  DMSO     8    12    NA       n     1  rep1 50190
##  9 Cytotox Plate_11 NaNO3     1     2 1e-04 pr_ec80     1  rep1 48829
## 10 Cytotox Plate_11 NaNO3     8    11 1e-04 pr_ec80     1  rep1 45948
## # ... with 530 more rows, and 1 more variables: apid <chr>
…
